Minería de texto en preguntas abiertas
…
Agregar variable a predecir

tdm$respuesta <- texto$F1_COD

tdm %>% 
  group_by(respuesta) %>% 
  summarise(Frecuencia = n()) %>% 
  arrange(desc(Frecuencia))

## # A tibble: 21 x 2
##    respuesta Frecuencia
##    <chr>          <int>
##  1 1                218
##  2 2                195
##  3 3                 68
##  4 4                 67
##  5 5                 58
##  6 19                57
##  7 88                45
##  8 6                 44
##  9 7                 34
## 10 8                 27
## # ... with 11 more rows
…
